{
    "elements":[
        {"symbol":"H", "molarMass":"1.008"},
        {"symbol":"He", "molarMass":"4.002602"},
        {"symbol":"Li", "molarMass":"6.94"},
        {"symbol":"Be", "molarMass":"9.0121831"},
        {"symbol":"B", "molarMass":"10.81"},
        {"symbol":"C", "molarMass":"12.011"},
        {"symbol":"N", "molarMass":"14.007"},
        {"symbol":"O", "molarMass":"15.999"},
        {"symbol":"F", "molarMass":"18.998403163"},
        {"symbol":"Ne", "molarMass":"20.1797"},
        {"symbol":"Na", "molarMass":"22.98976928"},
        {"symbol":"Mg", "molarMass":"24.305"},
        {"symbol":"Al", "molarMass":"26.9815384"},
        {"symbol":"Si", "molarMass":"28.085"},
        {"symbol":"P", "molarMass":"30.973761998"},
        {"symbol":"S", "molarMass":"32.06"},
        {"symbol":"Cl", "molarMass":"35.45"},
        {"symbol":"Ar", "molarMass":"39.948"},
        {"symbol":"K", "molarMass":"39.0983"},
        {"symbol":"Ca", "molarMass":"40.078"},
        {"symbol":"Sc", "molarMass":"44.955908"},
        {"symbol":"Ti", "molarMass":"47.867"},
        {"symbol":"V", "molarMass":"50.9415"},
        {"symbol":"Cr", "molarMass":"51.9961"},
        {"symbol":"Mn", "molarMass":"54.938043"},
        {"symbol":"Fe", "molarMass":"55.845"},
        {"symbol":"Co", "molarMass":"58.933194"},
        {"symbol":"Ni", "molarMass":"58.6934"},
        {"symbol":"Cu", "molarMass":"63.546"},
        {"symbol":"Zn", "molarMass":"65.38"},
        {"symbol":"Ga", "molarMass":"69.723"},
        {"symbol":"Ge", "molarMass":"72.630"},
        {"symbol":"As", "molarMass":"74.921595"},
        {"symbol":"Se", "molarMass":"78.971"},
        {"symbol":"Br", "molarMass":"79.904"},
        {"symbol":"Kr", "molarMass":"83.798"},
        {"symbol":"Rb", "molarMass":"85.4678"},
        {"symbol":"Sr", "molarMass":"87.62"},
        {"symbol":"Y", "molarMass":"88.90584"},
        {"symbol":"Zr", "molarMass":"91.224"},
        {"symbol":"Nb", "molarMass":"92.90637"},
        {"symbol":"Mo", "molarMass":"95.95"},
        {"symbol":"Tc", "molarMass":"97.9"},
        {"symbol":"Ru", "molarMass":"101.07"},
        {"symbol":"Rh", "molarMass":"102.90549"},
        {"symbol":"Pd", "molarMass":"106.42"},
        {"symbol":"Ag", "molarMass":"107.8682"},
        {"symbol":"Cd", "molarMass":"112.414"},
        {"symbol":"In", "molarMass":"114.818"},
        {"symbol":"Sn", "molarMass":"118.710"},
        {"symbol":"Sb", "molarMass":"121.760"},
        {"symbol":"Te", "molarMass":"127.60"},
        {"symbol":"I", "molarMass":"126.90447"},
        {"symbol":"Xe", "molarMass":"131.293"},
        {"symbol":"Cs", "molarMass":"132.90545196"},
        {"symbol":"Ba", "molarMass":"137.327"},
        {"symbol":"La", "molarMass":"138.90547"},
        {"symbol":"Ce", "molarMass":"140.116"},
        {"symbol":"Pr", "molarMass":"140.90766"},
        {"symbol":"Nd", "molarMass":"144.242"},
        {"symbol":"Pm", "molarMass":"145"},
        {"symbol":"Sm", "molarMass":"150.36"},
        {"symbol":"Eu", "molarMass":"151.964"},
        {"symbol":"Gd", "molarMass":"157.25"},
        {"symbol":"Tb", "molarMass":"158.925354"},
        {"symbol":"Dy", "molarMass":"162.500"},
        {"symbol":"Ho", "molarMass":"164.930328"},
        {"symbol":"Er", "molarMass":"167.259"},
        {"symbol":"Tm", "molarMass":"168.934218"},
        {"symbol":"Yb", "molarMass":"173.045"},
        {"symbol":"Lu", "molarMass":"174.9668"},
        {"symbol":"Hf", "molarMass":"178.486"},
        {"symbol":"Ta", "molarMass":"180.94788"},
        {"symbol":"W", "molarMass":"183.84"},
        {"symbol":"Re", "molarMass":"186.207"},
        {"symbol":"Os", "molarMass":"190.23"},
        {"symbol":"Ir", "molarMass":"192.217"},
        {"symbol":"Pt", "molarMass":"195.084"},
        {"symbol":"Au", "molarMass":"196.966570"},
        {"symbol":"Hg", "molarMass":"200.592"},
        {"symbol":"Tl", "molarMass":"204.38"},
        {"symbol":"Pb", "molarMass":"207.2"},
        {"symbol":"Bi", "molarMass":"208.98040"},
        {"symbol":"Po", "molarMass":"209"},
        {"symbol":"At", "molarMass":"210"},
        {"symbol":"Rn", "molarMass":"222"},
        {"symbol":"Fr", "molarMass":"223"},
        {"symbol":"Ra", "molarMass":"226"},
        {"symbol":"Ac", "molarMass":"227"},
        {"symbol":"Th", "molarMass":"232.0377"},
        {"symbol":"Pa", "molarMass":"231.03588"},
        {"symbol":"U", "molarMass":"238.02891"},
        {"symbol":"Np", "molarMass":"237"},
        {"symbol":"Pu", "molarMass":"244"},
        {"symbol":"Am", "molarMass":"243"},
        {"symbol":"Cm", "molarMass":"247"},
        {"symbol":"Bk", "molarMass":"247"},
        {"symbol":"Cf", "molarMass":"251"},
        {"symbol":"Es", "molarMass":"252"},
        {"symbol":"Fm", "molarMass":"257"},
        {"symbol":"Md", "molarMass":"258"},
        {"symbol":"No", "molarMass":"259"},
        {"symbol":"Lr", "molarMass":"262"},
        {"symbol":"Rf", "molarMass":"267"},
        {"symbol":"Db", "molarMass":"268"},
        {"symbol":"Sg", "molarMass":"271"},
        {"symbol":"Bh", "molarMass":"274"},
        {"symbol":"Hs", "molarMass":"277"},
        {"symbol":"Mt", "molarMass":"278"},
        {"symbol":"Ds", "molarMass":"281"},
        {"symbol":"Rg", "molarMass":"282"},
        {"symbol":"Cn", "molarMass":"285"},
        {"symbol":"Nh", "molarMass":"286"},
        {"symbol":"Fl", "molarMass":"289"},
        {"symbol":"Mc", "molarMass":"290"},
        {"symbol":"Lv", "molarMass":"293"},
        {"symbol":"Ts", "molarMass":"294"},
        {"symbol":"Og", "molarMass":"294"}
    ]
}